\relax 
\babel@aux{english}{}
\@writefile{toc}{\contentsline {section}{\numberline {1}The problem}{1}}
\newlabel{eq:hess}{{1}{1}}
\@writefile{toc}{\contentsline {section}{\numberline {2}A solution}{2}}
\newlabel{eq:jsequence}{{2}{2}}
\newlabel{eq:isequence}{{3}{2}}
\newlabel{eq:Api}{{5}{2}}
\newlabel{eq:Aiq}{{8}{2}}
\newlabel{eq:Aqp}{{12}{2}}
\newlabel{eq:angle}{{13}{3}}
\@writefile{toc}{\contentsline {section}{\numberline {3}Implementation}{3}}
\newlabel{eq:Atest}{{14}{3}}
\newlabel{eq:det1}{{15}{4}}
\newlabel{eq:det2}{{16}{4}}
\@writefile{toc}{\contentsline {section}{\numberline {4}Extra}{4}}
\@writefile{lof}{\contentsline {figure}{\numberline {1}{\ignorespaces Execution times of Hessenberg factorization and of $QR$ factorization of identical pseudo-randomly generated asymmetric square matrices of various dimensions.}}{5}}
\newlabel{fig:timing}{{1}{5}}
\newlabel{eq:detalg}{{17}{6}}
