#Evaluating cubic spline, S, derivative of the cubic spline, D[S], and integral of the cubic spline, int[S], of z³ - 4*z² + z + 5 with z between 0 and 5. The spline, the derivative of the spline and the integral of the spline were given 6 data points between 0 and 5. They are now evaluated at 61 evenly spaced points between 0 and 5.
#See cinterp_evaluate.svg, cinterp_derivative.svg and cinterp_integral.svg.
#z	S(z)	D[S(z)]	int[S(z)]	GSL
0	5	-1.29187	0	5
0.0833333	4.89193	-1.30662	0.412172	4.89193
0.166667	4.78141	-1.35088	0.815254	4.78141
0.25	4.66597	-1.42464	1.20894	4.66597
0.333333	4.54315	-1.52791	1.59271	4.54315
0.416667	4.4105	-1.66069	1.96586	4.4105
0.5	4.26555	-1.82297	2.32745	4.26555
0.583333	4.10585	-2.01475	2.67637	4.10585
0.666667	3.92894	-2.23604	3.01128	3.92894
0.75	3.73236	-2.48684	3.33065	3.73236
0.833333	3.51365	-2.76715	3.63273	3.51365
0.916667	3.27035	-3.07695	3.91557	3.27035
1	3	-3.41627	4.17703	3
1.08333	2.70145	-3.73824	4.41478	2.70145
1.16667	2.37874	-3.99601	4.6266	2.37874
1.25	2.03723	-4.18959	4.81072	2.03723
1.33333	1.68226	-4.31898	4.96577	1.68226
1.41667	1.31918	-4.38417	5.09087	1.31918
1.5	0.953349	-4.38517	5.18556	0.953349
1.58333	0.590106	-4.32197	5.24983	0.590106
1.66667	0.234804	-4.19458	5.28413	0.234804
1.75	-0.107207	-4.00299	5.28933	-0.107207
1.83333	-0.430578	-3.74721	5.26678	-0.430578
1.91667	-0.729959	-3.42723	5.21824	-0.729959
2	-1	-3.04306	5.14593	-1
2.08333	-1.23593	-2.61543	5.05252	-1.23593
2.16667	-1.43527	-2.16507	4.94096	-1.43527
2.25	-1.59614	-1.69199	4.81438	-1.59614
2.33333	-1.71664	-1.19617	4.67606	-1.71664
2.41667	-1.79487	-0.677632	4.52945	-1.79487
2.5	-1.82895	-0.136364	4.37814	-1.82895
2.58333	-1.81697	0.427632	4.2259	-1.81697
2.66667	-1.75704	1.01435	4.07664	-1.75704
2.75	-1.64728	1.6238	3.93444	-1.64728
2.83333	-1.48578	2.25598	3.80353	-1.48578
2.91667	-1.27065	2.91089	3.6883	-1.27065
3	-1	3.58852	3.5933	-1
3.08333	-0.670931	4.32496	3.52325	-0.670931
3.16667	-0.276537	5.1563	3.48329	-0.276537
3.25	0.191089	6.08254	3.4792	0.191089
3.33333	0.739855	7.10367	3.5174	0.739855
3.41667	1.37767	8.2197	3.60498	1.37767
3.5	2.11244	9.43062	3.7497	2.11244
3.58333	2.95208	10.7364	3.95997	2.95208
3.66667	3.90448	12.1372	4.24485	3.90448
3.75	4.97757	13.6328	4.61407	4.97757
3.83333	6.17925	15.2233	5.07801	6.17925
3.91667	7.51742	16.9087	5.64773	7.51742
4	9	18.689	6.33493	9
4.08333	10.6315	20.4406	7.15189	10.6315
4.16667	12.4025	22.0399	8.11072	12.4025
4.25	14.3005	23.4868	9.22251	14.3005
4.33333	16.3128	24.7815	10.4973	16.3128
4.41667	18.4266	25.9238	11.9441	18.4266
4.5	20.6292	26.9139	13.5709	20.6292
4.58333	22.908	27.7516	15.3844	22.908
4.66667	25.2502	28.437	17.3906	25.2502
4.75	27.6432	28.9701	19.5942	27.6432
4.83333	30.0743	29.3509	21.9989	30.0743
4.91667	32.5308	29.5793	24.6073	32.5308
5	35	29.6555	27.4211	35
