\relax 
\citation{wiki}
\citation{wiki}
\@writefile{toc}{\contentsline {section}{\numberline {1}Definition}{1}}
\@writefile{lof}{\contentsline {figure}{\numberline {1}{\ignorespaces A plot of the error function $\textrm  {erf}(x)$ for $x \in [-3,3]$.}}{1}}
\newlabel{errfun}{{1}{1}}
\bibcite{wiki}{1}
\@writefile{toc}{\contentsline {section}{\numberline {2}Statistical interpretation}{2}}
