#x	y
0.0000000000000002	0.0000000000000000
0.0000000000000003	-0.0000000795440505
0.0000000000000003	-0.0000001542371706
0.0000000000000003	-0.0000002353540029
0.0000000000000004	-0.0000003212998646
0.0000000000000004	-0.0000004127423485
0.0000000000000005	-0.0000005099683679
0.0000000000000006	-0.0000006133588484
0.0000000000000006	-0.0000007233057817
0.0000000000000007	-0.0000008402288334
0.0000000000000008	-0.0000009645743166
0.0000000000000009	-0.0000010968174187
0.0000000000000011	-0.0000012374640029
0.0000000000000012	-0.0000013870526173
0.0000000000000014	-0.0000015461566239
0.0000000000000016	-0.0000017153864646
0.0000000000000018	-0.0000018953920895
0.0000000000000020	-0.0000020868655275
0.0000000000000023	-0.0000022905436379
0.0000000000000026	-0.0000025072110574
0.0000000000000030	-0.0000027377032878
0.0000000000000034	-0.0000029829100585
0.0000000000000039	-0.0000032437788542
0.0000000000000044	-0.0000035213187256
0.0000000000000050	-0.0000038166042964
0.0000000000000057	-0.0000041307800647
0.0000000000000065	-0.0000044650650183
0.0000000000000074	-0.0000048207574801
0.0000000000000085	-0.0000051992403759
0.0000000000000097	-0.0000056019867203
0.0000000000000110	-0.0000060305656361
0.0000000000000126	-0.0000064866485961
0.0000000000000143	-0.0000069720161968
0.0000000000000163	-0.0000074885653530
0.0000000000000186	-0.0000080383169381
0.0000000000000212	-0.0000086234239926
0.0000000000000242	-0.0000092461804311
0.0000000000000276	-0.0000099090303420
0.0000000000000315	-0.0000106145779074
0.0000000000000360	-0.0000113655979932
0.0000000000000410	-0.0000121650474357
0.0000000000000468	-0.0000130160770710
0.0000000000000535	-0.0000139220446117
0.0000000000000610	-0.0000148865283240
0.0000000000000697	-0.0000159133416822
0.0000000000000795	-0.0000170065489336
0.0000000000000908	-0.0000181704817915
0.0000000000001037	-0.0000194097571310
0.0000000000001184	-0.0000207292959575
0.0000000000001353	-0.0000221343436696
0.0000000000001545	-0.0000236304916910
0.0000000000001765	-0.0000252237002947
0.0000000000002017	-0.0000269203234312
0.0000000000002305	-0.0000287271347142
0.0000000000002634	-0.0000306513556709
0.0000000000003011	-0.0000327006853066
0.0000000000003441	-0.0000348833324102
0.0000000000003934	-0.0000372080491001
0.0000000000004498	-0.0000396841674980
0.0000000000005144	-0.0000423216385199
0.0000000000005882	-0.0000451310731454
0.0000000000006727	-0.0000481237865382
0.0000000000007695	-0.0000513118454564
0.0000000000008803	-0.0000547081185237
0.0000000000010072	-0.0000583263299772
0.0000000000011525	-0.0000621811171221
0.0000000000013189	-0.0000662880917181
0.0000000000015095	-0.0000706639052670
0.0000000000017278	-0.0000753263192589
0.0000000000019780	-0.0000802942796564
0.0000000000022647	-0.0000855879961144
0.0000000000025932	-0.0000912290283763
0.0000000000029697	-0.0000972403758383
0.0000000000034014	-0.0001036465757823
0.0000000000038962	-0.0001104738061553
0.0000000000044636	-0.0001177499972155
0.0000000000051143	-0.0001255049493090
0.0000000000058606	-0.0001337704595825
0.0000000000067166	-0.0001425804570020
0.0000000000076987	-0.0001519711462621
0.0000000000088254	-0.0001619811623599
0.0000000000101184	-0.0001726517353663
0.0000000000116023	-0.0001840268661244
0.0000000000133056	-0.0001961535133934
0.0000000000152609	-0.0002090817964768
0.0000000000175059	-0.0002228652079223
0.0000000000200838	-0.0002375608442611
0.0000000000230445	-0.0002532296501129
0.0000000000264452	-0.0002699366804497
0.0000000000303519	-0.0002877513804760
0.0000000000348405	-0.0003067478843457
0.0000000000399984	-0.0003270053354854
0.0000000000459264	-0.0003486082271645
0.0000000000527403	-0.0003716467681002
0.0000000000605736	-0.0003962172723543
0.0000000000695804	-0.0004224225781074
0.0000000000799379	-0.0004503724916493
0.0000000000918504	-0.0004801842645272
0.0000000001055535	-0.0005119831040303
0.0000000001213188	-0.0005459027170993
0.0000000001394594	-0.0005820858938390
0.0000000001603365	-0.0006206851287268
0.0000000001843665	-0.0006618632887033
0.0000000002120300	-0.0007057943217119
0.0000000002438815	-0.0007526640223082
0.0000000002805610	-0.0008026708419005
0.0000000003228071	-0.0008560267638838
0.0000000003714726	-0.0009129582297989
0.0000000004275422	-0.0009737071375936
0.0000000004921530	-0.0010385319079384
0.0000000005666187	-0.0011077086187411
0.0000000006524570	-0.0011815322295150
0.0000000007514216	-0.0012603178811477
0.0000000008655395	-0.0013444022900244
0.0000000009971540	-0.0014341452417370
0.0000000011489741	-0.0015299311831872
0.0000000013241331	-0.0016321709310132
0.0000000015262549	-0.0017413034968434
0.0000000017595323	-0.0018577980467699
0.0000000020288170	-0.0019821559866074
0.0000000023397240	-0.0021149131985606
0.0000000026987540	-0.0022566424407870
0.0000000031134337	-0.0024079559049035
0.0000000035924800	-0.0025695079606035
0.0000000041459905	-0.0027419980891370
0.0000000047856648	-0.0029261740284993
0.0000000055250614	-0.0031228351374245
0.0000000063798967	-0.0033328359796263
0.0000000073683930	-0.0035570902099341
0.0000000085116822	-0.0037965746651283
0.0000000098342771	-0.0040523338116824
0.0000000113646181	-0.0043254844489247
0.0000000131357115	-0.0046172208056352
0.0000000151858714	-0.0049288199476528
0.0000000175595844	-0.0052616475953423
0.0000000203085173	-0.0056171643386738
0.0000000234926917	-0.0059969323249649
0.0000000271818531	-0.0064026223864946
0.0000000314570678	-0.0068360217105548
0.0000000364125866	-0.0072990420310864
0.0000000421580191	-0.0077937284177143
0.0000000488208728	-0.0083222687181886
0.0000000565495181	-0.0088870036383190
0.0000000655166528	-0.0094904375840588
0.0000000759233511	-0.0101352502707205
0.0000000880037973	-0.0108243091582836
0.0000001020308237	-0.0115606828356112
0.0000001183223897	-0.0123476553229126
0.0000001372491666	-0.0131887414557335
0.0000001592434202	-0.0140877033634124
0.0000001848094187	-0.0150485682126682
0.0000002145356293	-0.0160756471466247
0.0000002491090246	-0.0171735557363099
0.0000002893318637	-0.0183472358644308
0.0000003361413946	-0.0196019793308300
0.0000003906329841	-0.0209434530234639
0.0000004540873046	-0.0223777262012974
0.0000005280022907	-0.0239112996909664
0.0000006141307254	-0.0255511372396907
0.0000007145244860	-0.0273046994123934
0.0000008315866363	-0.0291799798226593
0.0000009681328229	-0.0311855443695447
0.0000011274636565	-0.0333305733054605
0.0000013134501126	-0.0356249065851949
0.0000015306343670	-0.0380790927998909
0.0000017843489224	-0.0407044418243564
0.0000020808574522	-0.0435130815517552
0.0000024275214573	-0.0465180191863376
0.0000028329976095	-0.0497332073494177
0.0000033074716136	-0.0531736153773306
0.0000038629355797	-0.0568553062857453
0.0000045135173197	-0.0607955200875167
0.0000052758715874	-0.0650127636813926
0.0000061696453891	-0.0695269081217819
0.0000072180319068	-0.0743592938183203
0.0000084484305329	-0.0795328441903762
0.0000098932343330	-0.0850721892133634
0.0000115907703058	-0.0910037987051057
0.0000135864235585	-0.0973561270157441
0.0000159339828201	-0.1041597696947217
0.0000186972529783	-0.1114476336335400
0.0000219519898932	-0.1192551213822101
0.0000257882250268	-0.1276203311563133
0.0000303130623548	-0.1365842741662145
0.0000356540478900	-0.1461911100602888
0.0000419632353343	-0.1564884027595444
0.0000494220991151	-0.1675273983566974
0.0000582474804595	-0.1793633265149121
0.0000686987954601	-0.1920557274339301
0.0000810867887689	-0.2056688076167047
0.0000957841800199	-0.2202718236099697
0.0001132386402607	-0.2359395004905541
0.0001339886328670	-0.2527524828476334
0.0001586827926752	-0.2707978239319769
0.0001881036779145	-0.2901695129327414
0.0002231969443028	-0.3109690441993305
0.0002651072541991	-0.3333060293882664
0.0003152225716495	-0.3572988534049653
0.0003752289289844	-0.3830753764434661
0.0004471782943573	-0.4107736800636482
0.0005335728854826	-0.4405428589871340
0.0006374701614233	-0.4725438508653076
0.0007626139159046	-0.5069503039204974
0.0009135983793920	-0.5439494700913889
0.0010960742018500	-0.5837431120618052
0.0013170077357686	-0.6265484079746104
0.0015850083366188	-0.6725988263351338
0.0019107427524071	-0.7221449383773562
0.0023074613570303	-0.7754551201033479
0.0027916685139736	-0.8328160842524922
0.0033839792637284	-0.8945331580484280
0.0041102177096783	-0.9609301977520089
0.0050028300597876	-1.0323489997265847
0.0061027086956867	-1.1091480183663005
0.0074615551600401	-1.1917001487124077
0.0091449523769155	-1.2803892582426344
0.0112363736089013	-1.3756050499388326
0.0138424335810017	-1.4777357264954172
0.0170997929158174	-1.5871577560102317
0.0211842718886494	-1.7042218410417660
0.0263229279323739	-1.8292339218895195
0.0328101245064185	-1.9624297012809830
0.0410289963674216	-2.1039407375180637
0.0514802385699496	-2.2537495759449473
0.0648208718302156	-2.4116306546442332
0.0819166458602991	-2.5770727807780114
0.1039131467152309	-2.7491777729964384
0.1323326295241824	-2.9265283569035745
0.1692063141654734	-3.1070165231140612
0.2172556366703210	-3.2876212754490961
0.2801410943736671	-3.4641220260397461
0.3628042584626664	-3.6307309697957884
0.4719376142830310	-3.7796250157151068
0.6166281680852213	-3.9003562582231859
0.8092332448425644	-3.9791217850088643
1.0000000000000000	-4.0000040853371175
