#x	y
0.0000000000000000	0.5000000000000000
0.0500000000000000	0.5124973964841969
0.5939554352757501	0.6442719268269800
1.1776037778723714	0.7645162212198721
1.5659697126708705	0.8272080131616750
1.9474288593463225	0.8751659266635430
2.3359746201721756	0.9118130491624836
2.7137227622932252	0.9378317693868217
3.0000000000000000	0.9525743154601120
