<?xml version="1.0" encoding="utf-8"  standalone="no"?>
<svg 
 width="600" height="480"
 viewBox="0 0 600 480"
 xmlns="http://www.w3.org/2000/svg"
 xmlns:xlink="http://www.w3.org/1999/xlink"
>

<title>Gnuplot</title>
<desc>Produced by GNUPLOT 5.2 patchlevel 2 </desc>

<g id="gnuplot_canvas">

<rect x="0" y="0" width="600" height="480" fill="#ffffff"/>
<defs>

	<circle id='gpDot' r='0.5' stroke-width='0.5'/>
	<path id='gpPt0' stroke-width='0.222' stroke='currentColor' d='M-1,0 h2 M0,-1 v2'/>
	<path id='gpPt1' stroke-width='0.222' stroke='currentColor' d='M-1,-1 L1,1 M1,-1 L-1,1'/>
	<path id='gpPt2' stroke-width='0.222' stroke='currentColor' d='M-1,0 L1,0 M0,-1 L0,1 M-1,-1 L1,1 M-1,1 L1,-1'/>
	<rect id='gpPt3' stroke-width='0.222' stroke='currentColor' x='-1' y='-1' width='2' height='2'/>
	<rect id='gpPt4' stroke-width='0.222' stroke='currentColor' fill='currentColor' x='-1' y='-1' width='2' height='2'/>
	<circle id='gpPt5' stroke-width='0.222' stroke='currentColor' cx='0' cy='0' r='1'/>
	<use xlink:href='#gpPt5' id='gpPt6' fill='currentColor' stroke='none'/>
	<path id='gpPt7' stroke-width='0.222' stroke='currentColor' d='M0,-1.33 L-1.33,0.67 L1.33,0.67 z'/>
	<use xlink:href='#gpPt7' id='gpPt8' fill='currentColor' stroke='none'/>
	<use xlink:href='#gpPt7' id='gpPt9' stroke='currentColor' transform='rotate(180)'/>
	<use xlink:href='#gpPt9' id='gpPt10' fill='currentColor' stroke='none'/>
	<use xlink:href='#gpPt3' id='gpPt11' stroke='currentColor' transform='rotate(45)'/>
	<use xlink:href='#gpPt11' id='gpPt12' fill='currentColor' stroke='none'/>
	<path id='gpPt13' stroke-width='0.222' stroke='currentColor' d='M0,1.330 L1.265,0.411 L0.782,-1.067 L-0.782,-1.076 L-1.265,0.411 z'/>
	<use xlink:href='#gpPt13' id='gpPt14' fill='currentColor' stroke='none'/>
	<filter id='textbox' filterUnits='objectBoundingBox' x='0' y='0' height='1' width='1'>
	  <feFlood flood-color='#FFFFFF' flood-opacity='1' result='bgnd'/>
	  <feComposite in='SourceGraphic' in2='bgnd' operator='atop'/>
	</filter>
	<filter id='greybox' filterUnits='objectBoundingBox' x='0' y='0' height='1' width='1'>
	  <feFlood flood-color='lightgrey' flood-opacity='1' result='grey'/>
	  <feComposite in='SourceGraphic' in2='grey' operator='atop'/>
	</filter>
</defs>
<g fill="none" color="#FFFFFF" stroke="currentColor" stroke-width="1.00" stroke-linecap="butt" stroke-linejoin="miter">
</g>
<g fill="none" color="black" stroke="currentColor" stroke-width="1.00" stroke-linecap="butt" stroke-linejoin="miter">
</g>
<g fill="none" color="black" stroke="black" stroke-width="0.50" stroke-linecap="butt" stroke-linejoin="miter">
</g>
<g fill="none" color="gray" stroke="currentColor" stroke-width="0.50" stroke-linecap="butt" stroke-linejoin="miter">
	<path stroke='gray' stroke-dasharray='2,4' class="gridline"  d='M63.6,422.4 L575.0,422.4  '/></g>
<g fill="none" color="gray" stroke="gray" stroke-width="1.00" stroke-linecap="butt" stroke-linejoin="miter">
</g>
<g fill="none" color="black" stroke="currentColor" stroke-width="1.00" stroke-linecap="butt" stroke-linejoin="miter">
	<path stroke='black'  d='M63.6,422.4 L72.6,422.4 M575.0,422.4 L566.0,422.4  '/>	<g transform="translate(55.3,426.3)" stroke="none" fill="black" font-family="Arial" font-size="12.00"  text-anchor="end">
		<text><tspan font-family="Arial" >-60</tspan></text>
	</g>
</g>
<g fill="none" color="black" stroke="currentColor" stroke-width="1.00" stroke-linecap="butt" stroke-linejoin="miter">
</g>
<g fill="none" color="black" stroke="black" stroke-width="0.50" stroke-linecap="butt" stroke-linejoin="miter">
</g>
<g fill="none" color="gray" stroke="currentColor" stroke-width="0.50" stroke-linecap="butt" stroke-linejoin="miter">
	<path stroke='gray' stroke-dasharray='2,4' class="gridline"  d='M63.6,364.6 L575.0,364.6  '/></g>
<g fill="none" color="gray" stroke="gray" stroke-width="1.00" stroke-linecap="butt" stroke-linejoin="miter">
</g>
<g fill="none" color="black" stroke="currentColor" stroke-width="1.00" stroke-linecap="butt" stroke-linejoin="miter">
	<path stroke='black'  d='M63.6,364.6 L72.6,364.6 M575.0,364.6 L566.0,364.6  '/>	<g transform="translate(55.3,368.5)" stroke="none" fill="black" font-family="Arial" font-size="12.00"  text-anchor="end">
		<text><tspan font-family="Arial" >-50</tspan></text>
	</g>
</g>
<g fill="none" color="black" stroke="currentColor" stroke-width="1.00" stroke-linecap="butt" stroke-linejoin="miter">
</g>
<g fill="none" color="black" stroke="black" stroke-width="0.50" stroke-linecap="butt" stroke-linejoin="miter">
</g>
<g fill="none" color="gray" stroke="currentColor" stroke-width="0.50" stroke-linecap="butt" stroke-linejoin="miter">
	<path stroke='gray' stroke-dasharray='2,4' class="gridline"  d='M63.6,306.9 L575.0,306.9  '/></g>
<g fill="none" color="gray" stroke="gray" stroke-width="1.00" stroke-linecap="butt" stroke-linejoin="miter">
</g>
<g fill="none" color="black" stroke="currentColor" stroke-width="1.00" stroke-linecap="butt" stroke-linejoin="miter">
	<path stroke='black'  d='M63.6,306.9 L72.6,306.9 M575.0,306.9 L566.0,306.9  '/>	<g transform="translate(55.3,310.8)" stroke="none" fill="black" font-family="Arial" font-size="12.00"  text-anchor="end">
		<text><tspan font-family="Arial" >-40</tspan></text>
	</g>
</g>
<g fill="none" color="black" stroke="currentColor" stroke-width="1.00" stroke-linecap="butt" stroke-linejoin="miter">
</g>
<g fill="none" color="black" stroke="black" stroke-width="0.50" stroke-linecap="butt" stroke-linejoin="miter">
</g>
<g fill="none" color="gray" stroke="currentColor" stroke-width="0.50" stroke-linecap="butt" stroke-linejoin="miter">
	<path stroke='gray' stroke-dasharray='2,4' class="gridline"  d='M63.6,249.1 L575.0,249.1  '/></g>
<g fill="none" color="gray" stroke="gray" stroke-width="1.00" stroke-linecap="butt" stroke-linejoin="miter">
</g>
<g fill="none" color="black" stroke="currentColor" stroke-width="1.00" stroke-linecap="butt" stroke-linejoin="miter">
	<path stroke='black'  d='M63.6,249.1 L72.6,249.1 M575.0,249.1 L566.0,249.1  '/>	<g transform="translate(55.3,253.0)" stroke="none" fill="black" font-family="Arial" font-size="12.00"  text-anchor="end">
		<text><tspan font-family="Arial" >-30</tspan></text>
	</g>
</g>
<g fill="none" color="black" stroke="currentColor" stroke-width="1.00" stroke-linecap="butt" stroke-linejoin="miter">
</g>
<g fill="none" color="black" stroke="black" stroke-width="0.50" stroke-linecap="butt" stroke-linejoin="miter">
</g>
<g fill="none" color="gray" stroke="currentColor" stroke-width="0.50" stroke-linecap="butt" stroke-linejoin="miter">
	<path stroke='gray' stroke-dasharray='2,4' class="gridline"  d='M63.6,191.4 L575.0,191.4  '/></g>
<g fill="none" color="gray" stroke="gray" stroke-width="1.00" stroke-linecap="butt" stroke-linejoin="miter">
</g>
<g fill="none" color="black" stroke="currentColor" stroke-width="1.00" stroke-linecap="butt" stroke-linejoin="miter">
	<path stroke='black'  d='M63.6,191.4 L72.6,191.4 M575.0,191.4 L566.0,191.4  '/>	<g transform="translate(55.3,195.3)" stroke="none" fill="black" font-family="Arial" font-size="12.00"  text-anchor="end">
		<text><tspan font-family="Arial" >-20</tspan></text>
	</g>
</g>
<g fill="none" color="black" stroke="currentColor" stroke-width="1.00" stroke-linecap="butt" stroke-linejoin="miter">
</g>
<g fill="none" color="black" stroke="black" stroke-width="0.50" stroke-linecap="butt" stroke-linejoin="miter">
</g>
<g fill="none" color="gray" stroke="currentColor" stroke-width="0.50" stroke-linecap="butt" stroke-linejoin="miter">
	<path stroke='gray' stroke-dasharray='2,4' class="gridline"  d='M63.6,133.6 L575.0,133.6  '/></g>
<g fill="none" color="gray" stroke="gray" stroke-width="1.00" stroke-linecap="butt" stroke-linejoin="miter">
</g>
<g fill="none" color="black" stroke="currentColor" stroke-width="1.00" stroke-linecap="butt" stroke-linejoin="miter">
	<path stroke='black'  d='M63.6,133.6 L72.6,133.6 M575.0,133.6 L566.0,133.6  '/>	<g transform="translate(55.3,137.5)" stroke="none" fill="black" font-family="Arial" font-size="12.00"  text-anchor="end">
		<text><tspan font-family="Arial" >-10</tspan></text>
	</g>
</g>
<g fill="none" color="black" stroke="currentColor" stroke-width="1.00" stroke-linecap="butt" stroke-linejoin="miter">
</g>
<g fill="none" color="black" stroke="black" stroke-width="0.50" stroke-linecap="butt" stroke-linejoin="miter">
</g>
<g fill="none" color="gray" stroke="currentColor" stroke-width="0.50" stroke-linecap="butt" stroke-linejoin="miter">
	<path stroke='gray' stroke-dasharray='2,4' class="gridline"  d='M63.6,75.9 L575.0,75.9  '/></g>
<g fill="none" color="gray" stroke="gray" stroke-width="1.00" stroke-linecap="butt" stroke-linejoin="miter">
</g>
<g fill="none" color="black" stroke="currentColor" stroke-width="1.00" stroke-linecap="butt" stroke-linejoin="miter">
	<path stroke='black'  d='M63.6,75.9 L72.6,75.9 M575.0,75.9 L566.0,75.9  '/>	<g transform="translate(55.3,79.8)" stroke="none" fill="black" font-family="Arial" font-size="12.00"  text-anchor="end">
		<text><tspan font-family="Arial" > 0</tspan></text>
	</g>
</g>
<g fill="none" color="black" stroke="currentColor" stroke-width="1.00" stroke-linecap="butt" stroke-linejoin="miter">
</g>
<g fill="none" color="black" stroke="black" stroke-width="0.50" stroke-linecap="butt" stroke-linejoin="miter">
</g>
<g fill="none" color="gray" stroke="currentColor" stroke-width="0.50" stroke-linecap="butt" stroke-linejoin="miter">
	<path stroke='gray' stroke-dasharray='2,4' class="gridline"  d='M63.6,18.1 L575.0,18.1  '/></g>
<g fill="none" color="gray" stroke="gray" stroke-width="1.00" stroke-linecap="butt" stroke-linejoin="miter">
</g>
<g fill="none" color="black" stroke="currentColor" stroke-width="1.00" stroke-linecap="butt" stroke-linejoin="miter">
	<path stroke='black'  d='M63.6,18.1 L72.6,18.1 M575.0,18.1 L566.0,18.1  '/>	<g transform="translate(55.3,22.0)" stroke="none" fill="black" font-family="Arial" font-size="12.00"  text-anchor="end">
		<text><tspan font-family="Arial" > 10</tspan></text>
	</g>
</g>
<g fill="none" color="black" stroke="currentColor" stroke-width="1.00" stroke-linecap="butt" stroke-linejoin="miter">
</g>
<g fill="none" color="black" stroke="black" stroke-width="0.50" stroke-linecap="butt" stroke-linejoin="miter">
</g>
<g fill="none" color="gray" stroke="currentColor" stroke-width="0.50" stroke-linecap="butt" stroke-linejoin="miter">
	<path stroke='gray' stroke-dasharray='2,4' class="gridline"  d='M63.6,422.4 L63.6,18.1  '/></g>
<g fill="none" color="gray" stroke="gray" stroke-width="1.00" stroke-linecap="butt" stroke-linejoin="miter">
</g>
<g fill="none" color="black" stroke="currentColor" stroke-width="1.00" stroke-linecap="butt" stroke-linejoin="miter">
	<path stroke='black'  d='M63.6,422.4 L63.6,413.4 M63.6,18.1 L63.6,27.1  '/>	<g transform="translate(63.6,444.3)" stroke="none" fill="black" font-family="Arial" font-size="12.00"  text-anchor="middle">
		<text><tspan font-family="Arial" >-2</tspan></text>
	</g>
</g>
<g fill="none" color="black" stroke="currentColor" stroke-width="1.00" stroke-linecap="butt" stroke-linejoin="miter">
</g>
<g fill="none" color="black" stroke="black" stroke-width="0.50" stroke-linecap="butt" stroke-linejoin="miter">
</g>
<g fill="none" color="gray" stroke="currentColor" stroke-width="0.50" stroke-linecap="butt" stroke-linejoin="miter">
	<path stroke='gray' stroke-dasharray='2,4' class="gridline"  d='M136.7,422.4 L136.7,18.1  '/></g>
<g fill="none" color="gray" stroke="gray" stroke-width="1.00" stroke-linecap="butt" stroke-linejoin="miter">
</g>
<g fill="none" color="black" stroke="currentColor" stroke-width="1.00" stroke-linecap="butt" stroke-linejoin="miter">
	<path stroke='black'  d='M136.7,422.4 L136.7,413.4 M136.7,18.1 L136.7,27.1  '/>	<g transform="translate(136.7,444.3)" stroke="none" fill="black" font-family="Arial" font-size="12.00"  text-anchor="middle">
		<text><tspan font-family="Arial" > 0</tspan></text>
	</g>
</g>
<g fill="none" color="black" stroke="currentColor" stroke-width="1.00" stroke-linecap="butt" stroke-linejoin="miter">
</g>
<g fill="none" color="black" stroke="black" stroke-width="0.50" stroke-linecap="butt" stroke-linejoin="miter">
</g>
<g fill="none" color="gray" stroke="currentColor" stroke-width="0.50" stroke-linecap="butt" stroke-linejoin="miter">
	<path stroke='gray' stroke-dasharray='2,4' class="gridline"  d='M209.7,422.4 L209.7,18.1  '/></g>
<g fill="none" color="gray" stroke="gray" stroke-width="1.00" stroke-linecap="butt" stroke-linejoin="miter">
</g>
<g fill="none" color="black" stroke="currentColor" stroke-width="1.00" stroke-linecap="butt" stroke-linejoin="miter">
	<path stroke='black'  d='M209.7,422.4 L209.7,413.4 M209.7,18.1 L209.7,27.1  '/>	<g transform="translate(209.7,444.3)" stroke="none" fill="black" font-family="Arial" font-size="12.00"  text-anchor="middle">
		<text><tspan font-family="Arial" > 2</tspan></text>
	</g>
</g>
<g fill="none" color="black" stroke="currentColor" stroke-width="1.00" stroke-linecap="butt" stroke-linejoin="miter">
</g>
<g fill="none" color="black" stroke="black" stroke-width="0.50" stroke-linecap="butt" stroke-linejoin="miter">
</g>
<g fill="none" color="gray" stroke="currentColor" stroke-width="0.50" stroke-linecap="butt" stroke-linejoin="miter">
	<path stroke='gray' stroke-dasharray='2,4' class="gridline"  d='M282.8,422.4 L282.8,18.1  '/></g>
<g fill="none" color="gray" stroke="gray" stroke-width="1.00" stroke-linecap="butt" stroke-linejoin="miter">
</g>
<g fill="none" color="black" stroke="currentColor" stroke-width="1.00" stroke-linecap="butt" stroke-linejoin="miter">
	<path stroke='black'  d='M282.8,422.4 L282.8,413.4 M282.8,18.1 L282.8,27.1  '/>	<g transform="translate(282.8,444.3)" stroke="none" fill="black" font-family="Arial" font-size="12.00"  text-anchor="middle">
		<text><tspan font-family="Arial" > 4</tspan></text>
	</g>
</g>
<g fill="none" color="black" stroke="currentColor" stroke-width="1.00" stroke-linecap="butt" stroke-linejoin="miter">
</g>
<g fill="none" color="black" stroke="black" stroke-width="0.50" stroke-linecap="butt" stroke-linejoin="miter">
</g>
<g fill="none" color="gray" stroke="currentColor" stroke-width="0.50" stroke-linecap="butt" stroke-linejoin="miter">
	<path stroke='gray' stroke-dasharray='2,4' class="gridline"  d='M355.8,422.4 L355.8,18.1  '/></g>
<g fill="none" color="gray" stroke="gray" stroke-width="1.00" stroke-linecap="butt" stroke-linejoin="miter">
</g>
<g fill="none" color="black" stroke="currentColor" stroke-width="1.00" stroke-linecap="butt" stroke-linejoin="miter">
	<path stroke='black'  d='M355.8,422.4 L355.8,413.4 M355.8,18.1 L355.8,27.1  '/>	<g transform="translate(355.8,444.3)" stroke="none" fill="black" font-family="Arial" font-size="12.00"  text-anchor="middle">
		<text><tspan font-family="Arial" > 6</tspan></text>
	</g>
</g>
<g fill="none" color="black" stroke="currentColor" stroke-width="1.00" stroke-linecap="butt" stroke-linejoin="miter">
</g>
<g fill="none" color="black" stroke="black" stroke-width="0.50" stroke-linecap="butt" stroke-linejoin="miter">
</g>
<g fill="none" color="gray" stroke="currentColor" stroke-width="0.50" stroke-linecap="butt" stroke-linejoin="miter">
	<path stroke='gray' stroke-dasharray='2,4' class="gridline"  d='M428.9,422.4 L428.9,18.1  '/></g>
<g fill="none" color="gray" stroke="gray" stroke-width="1.00" stroke-linecap="butt" stroke-linejoin="miter">
</g>
<g fill="none" color="black" stroke="currentColor" stroke-width="1.00" stroke-linecap="butt" stroke-linejoin="miter">
	<path stroke='black'  d='M428.9,422.4 L428.9,413.4 M428.9,18.1 L428.9,27.1  '/>	<g transform="translate(428.9,444.3)" stroke="none" fill="black" font-family="Arial" font-size="12.00"  text-anchor="middle">
		<text><tspan font-family="Arial" > 8</tspan></text>
	</g>
</g>
<g fill="none" color="black" stroke="currentColor" stroke-width="1.00" stroke-linecap="butt" stroke-linejoin="miter">
</g>
<g fill="none" color="black" stroke="black" stroke-width="0.50" stroke-linecap="butt" stroke-linejoin="miter">
</g>
<g fill="none" color="gray" stroke="currentColor" stroke-width="0.50" stroke-linecap="butt" stroke-linejoin="miter">
	<path stroke='gray' stroke-dasharray='2,4' class="gridline"  d='M501.9,422.4 L501.9,63.1 M501.9,27.1 L501.9,18.1  '/></g>
<g fill="none" color="gray" stroke="gray" stroke-width="1.00" stroke-linecap="butt" stroke-linejoin="miter">
</g>
<g fill="none" color="black" stroke="currentColor" stroke-width="1.00" stroke-linecap="butt" stroke-linejoin="miter">
	<path stroke='black'  d='M501.9,422.4 L501.9,413.4 M501.9,18.1 L501.9,27.1  '/>	<g transform="translate(501.9,444.3)" stroke="none" fill="black" font-family="Arial" font-size="12.00"  text-anchor="middle">
		<text><tspan font-family="Arial" > 10</tspan></text>
	</g>
</g>
<g fill="none" color="black" stroke="currentColor" stroke-width="1.00" stroke-linecap="butt" stroke-linejoin="miter">
</g>
<g fill="none" color="black" stroke="black" stroke-width="0.50" stroke-linecap="butt" stroke-linejoin="miter">
</g>
<g fill="none" color="gray" stroke="currentColor" stroke-width="0.50" stroke-linecap="butt" stroke-linejoin="miter">
	<path stroke='gray' stroke-dasharray='2,4' class="gridline"  d='M575.0,422.4 L575.0,18.1  '/></g>
<g fill="none" color="gray" stroke="gray" stroke-width="1.00" stroke-linecap="butt" stroke-linejoin="miter">
</g>
<g fill="none" color="black" stroke="currentColor" stroke-width="1.00" stroke-linecap="butt" stroke-linejoin="miter">
	<path stroke='black'  d='M575.0,422.4 L575.0,413.4 M575.0,18.1 L575.0,27.1  '/>	<g transform="translate(575.0,444.3)" stroke="none" fill="black" font-family="Arial" font-size="12.00"  text-anchor="middle">
		<text><tspan font-family="Arial" > 12</tspan></text>
	</g>
</g>
<g fill="none" color="black" stroke="currentColor" stroke-width="1.00" stroke-linecap="butt" stroke-linejoin="miter">
</g>
<g fill="none" color="black" stroke="currentColor" stroke-width="1.00" stroke-linecap="butt" stroke-linejoin="miter">
	<path stroke='black'  d='M63.6,18.1 L63.6,422.4 L575.0,422.4 L575.0,18.1 L63.6,18.1 Z  '/></g>
<g fill="none" color="black" stroke="currentColor" stroke-width="1.00" stroke-linecap="butt" stroke-linejoin="miter">
	<g transform="translate(16.3,220.3) rotate(270)" stroke="none" fill="black" font-family="Arial" font-size="12.00"  text-anchor="middle">
		<text><tspan font-family="Arial" >y</tspan></text>
	</g>
</g>
<g fill="none" color="black" stroke="currentColor" stroke-width="1.00" stroke-linecap="butt" stroke-linejoin="miter">
	<g transform="translate(319.3,471.3)" stroke="none" fill="black" font-family="Arial" font-size="12.00"  text-anchor="middle">
		<text><tspan font-family="Arial" >x</tspan></text>
	</g>
</g>
<g fill="none" color="black" stroke="currentColor" stroke-width="1.00" stroke-linecap="butt" stroke-linejoin="miter">
</g>
	<g id="gnuplot_plot_1" ><title>Data</title>
<g fill="none" color="black" stroke="currentColor" stroke-width="1.00" stroke-linecap="butt" stroke-linejoin="miter">
	<g transform="translate(507.9,40.0)" stroke="none" fill="black" font-family="Arial" font-size="12.00"  text-anchor="end">
		<text><tspan font-family="Arial" >Data</tspan></text>
	</g>
</g>
<g fill="none" color="black" stroke="currentColor" stroke-width="1.00" stroke-linecap="butt" stroke-linejoin="miter">
	<use xlink:href='#gpPt6' transform='translate(136.7,364.6) scale(4.50)' color='rgb(148,   0, 211)'/>
	<use xlink:href='#gpPt6' transform='translate(162.7,364.6) scale(4.50)' color='rgb(148,   0, 211)'/>
	<use xlink:href='#gpPt6' transform='translate(188.8,364.4) scale(4.50)' color='rgb(148,   0, 211)'/>
	<use xlink:href='#gpPt6' transform='translate(214.9,363.7) scale(4.50)' color='rgb(148,   0, 211)'/>
	<use xlink:href='#gpPt6' transform='translate(241.0,360.7) scale(4.50)' color='rgb(148,   0, 211)'/>
	<use xlink:href='#gpPt6' transform='translate(267.1,349.0) scale(4.50)' color='rgb(148,   0, 211)'/>
	<use xlink:href='#gpPt6' transform='translate(293.2,308.8) scale(4.50)' color='rgb(148,   0, 211)'/>
	<use xlink:href='#gpPt6' transform='translate(319.3,220.2) scale(4.50)' color='rgb(148,   0, 211)'/>
	<use xlink:href='#gpPt6' transform='translate(345.4,131.7) scale(4.50)' color='rgb(148,   0, 211)'/>
	<use xlink:href='#gpPt6' transform='translate(371.5,91.5) scale(4.50)' color='rgb(148,   0, 211)'/>
	<use xlink:href='#gpPt6' transform='translate(397.6,79.8) scale(4.50)' color='rgb(148,   0, 211)'/>
	<use xlink:href='#gpPt6' transform='translate(423.7,76.8) scale(4.50)' color='rgb(148,   0, 211)'/>
	<use xlink:href='#gpPt6' transform='translate(449.8,76.1) scale(4.50)' color='rgb(148,   0, 211)'/>
	<use xlink:href='#gpPt6' transform='translate(475.9,75.9) scale(4.50)' color='rgb(148,   0, 211)'/>
	<use xlink:href='#gpPt6' transform='translate(501.9,75.9) scale(4.50)' color='rgb(148,   0, 211)'/>
	<use xlink:href='#gpPt6' transform='translate(537.3,36.1) scale(4.50)' color='rgb(148,   0, 211)'/>
</g>
	</g>
	<g id="gnuplot_plot_2" ><title>Fit</title>
<g fill="none" color="black" stroke="currentColor" stroke-width="1.00" stroke-linecap="butt" stroke-linejoin="miter">
	<g transform="translate(507.9,58.0)" stroke="none" fill="black" font-family="Arial" font-size="12.00"  text-anchor="end">
		<text><tspan font-family="Arial" >Fit</tspan></text>
	</g>
</g>
<g fill="none" color="black" stroke="currentColor" stroke-width="1.00" stroke-linecap="butt" stroke-linejoin="miter">
	<path stroke='rgb(  0, 158, 115)'  d='M516.2,54.1 L558.4,54.1 M136.7,364.6 L137.2,364.6 L137.8,364.6 L138.4,364.6 L138.9,364.6 L139.5,364.6
		L140.1,364.6 L140.7,364.6 L141.2,364.6 L141.8,364.6 L142.4,364.6 L142.9,364.6 L143.5,364.6 L144.1,364.6
		L144.6,364.6 L145.2,364.6 L145.8,364.6 L146.4,364.6 L146.9,364.6 L147.5,364.6 L148.1,364.6 L148.6,364.6
		L149.2,364.6 L149.8,364.6 L150.4,364.6 L150.9,364.6 L151.5,364.6 L152.1,364.6 L152.6,364.6 L153.2,364.6
		L153.8,364.6 L154.4,364.6 L154.9,364.6 L155.5,364.6 L156.1,364.6 L156.6,364.6 L157.2,364.6 L157.8,364.6
		L158.3,364.6 L158.9,364.6 L159.5,364.6 L160.1,364.6 L160.6,364.6 L161.2,364.6 L161.8,364.6 L162.3,364.6
		L162.9,364.6 L163.5,364.6 L164.1,364.6 L164.6,364.6 L165.2,364.6 L165.8,364.6 L166.3,364.6 L166.9,364.6
		L167.5,364.6 L168.0,364.6 L168.6,364.6 L169.2,364.6 L169.8,364.6 L170.3,364.6 L170.9,364.6 L171.5,364.6
		L172.0,364.6 L172.6,364.6 L173.2,364.6 L173.8,364.6 L174.3,364.6 L174.9,364.6 L175.5,364.6 L176.0,364.5
		L176.6,364.5 L177.2,364.5 L177.8,364.5 L178.3,364.5 L178.9,364.5 L179.5,364.5 L180.0,364.5 L180.6,364.5
		L181.2,364.5 L181.7,364.5 L182.3,364.5 L182.9,364.5 L183.5,364.5 L184.0,364.5 L184.6,364.5 L185.2,364.5
		L185.7,364.5 L186.3,364.5 L186.9,364.5 L187.5,364.4 L188.0,364.4 L188.6,364.4 L189.2,364.4 L189.7,364.4
		L190.3,364.4 L190.9,364.4 L191.5,364.4 L192.0,364.4 L192.6,364.4 L193.2,364.4 L193.7,364.4 L194.3,364.3
		L194.9,364.3 L195.4,364.3 L196.0,364.3 L196.6,364.3 L197.2,364.3 L197.7,364.3 L198.3,364.3 L198.9,364.3
		L199.4,364.2 L200.0,364.2 L200.6,364.2 L201.2,364.2 L201.7,364.2 L202.3,364.2 L202.9,364.2 L203.4,364.1
		L204.0,364.1 L204.6,364.1 L205.1,364.1 L205.7,364.1 L206.3,364.1 L206.9,364.0 L207.4,364.0 L208.0,364.0
		L208.6,364.0 L209.1,364.0 L209.7,363.9 L210.3,363.9 L210.9,363.9 L211.4,363.9 L212.0,363.8 L212.6,363.8
		L213.1,363.8 L213.7,363.8 L214.3,363.7 L214.9,363.7 L215.4,363.7 L216.0,363.6 L216.6,363.6 L217.1,363.6
		L217.7,363.5 L218.3,363.5 L218.8,363.5 L219.4,363.4 L220.0,363.4 L220.6,363.4 L221.1,363.3 L221.7,363.3
		L222.3,363.2 L222.8,363.2 L223.4,363.1 L224.0,363.1 L224.6,363.0 L225.1,363.0 L225.7,362.9 L226.3,362.9
		L226.8,362.8 L227.4,362.8 L228.0,362.7 L228.5,362.6 L229.1,362.6 L229.7,362.5 L230.3,362.5 L230.8,362.4
		L231.4,362.3 L232.0,362.2 L232.5,362.2 L233.1,362.1 L233.7,362.0 L234.3,361.9 L234.8,361.8 L235.4,361.7
		L236.0,361.7 L236.5,361.6 L237.1,361.5 L237.7,361.4 L238.3,361.3 L238.8,361.2 L239.4,361.1 L240.0,360.9
		L240.5,360.8 L241.1,360.7 L241.7,360.6 L242.2,360.5 L242.8,360.3 L243.4,360.2 L244.0,360.0 L244.5,359.9
		L245.1,359.8 L245.7,359.6 L246.2,359.4 L246.8,359.3 L247.4,359.1 L248.0,358.9 L248.5,358.8 L249.1,358.6
		L249.7,358.4 L250.2,358.2 L250.8,358.0 L251.4,357.8 L252.0,357.6 L252.5,357.4 L253.1,357.1 L253.7,356.9
		L254.2,356.7 L254.8,356.4 L255.4,356.2 L255.9,355.9 L256.5,355.6 L257.1,355.4 L257.7,355.1 L258.2,354.8
		L258.8,354.5 L259.4,354.2 L259.9,353.9 L260.5,353.5 L261.1,353.2 L261.7,352.8 L262.2,352.5 L262.8,352.1
		L263.4,351.7 L263.9,351.3 L264.5,350.9 L265.1,350.5 L265.6,350.1 L266.2,349.7 L266.8,349.2 L267.4,348.7
		L267.9,348.3 L268.5,347.8 L269.1,347.3 L269.6,346.8 L270.2,346.2 L270.8,345.7 L271.4,345.1 L271.9,344.5
		L272.5,344.0 L273.1,343.3 L273.6,342.7 L274.2,342.1 L274.8,341.4 L275.4,340.7 L275.9,340.1 L276.5,339.3
		L277.1,338.6 L277.6,337.9 L278.2,337.1 L278.8,336.3 L279.3,335.5 L279.9,334.7 L280.5,333.8 L281.1,332.9
		L281.6,332.1 L282.2,331.1 L282.8,330.2 L283.3,329.2 L283.9,328.3 L284.5,327.3 L285.1,326.2 L285.6,325.2
		L286.2,324.1 L286.8,323.0 L287.3,321.9 L287.9,320.7 L288.5,319.5 L289.0,318.3 L289.6,317.1 L290.2,315.9
		L290.8,314.6 L291.3,313.3 L291.9,311.9 L292.5,310.6 L293.0,309.2 L293.6,307.8 L294.2,306.3 L294.8,304.9
		L295.3,303.4 L295.9,301.9 L296.5,300.3 L297.0,298.7 L297.6,297.1 L298.2,295.5 L298.8,293.9 L299.3,292.2
		L299.9,290.5 L300.5,288.7 L301.0,287.0 L301.6,285.2 L302.2,283.4 L302.7,281.5 L303.3,279.7 L303.9,277.8
		L304.5,275.9 L305.0,273.9 L305.6,272.0 L306.2,270.0 L306.7,268.0 L307.3,266.0 L307.9,264.0 L308.5,261.9
		L309.0,259.8 L309.6,257.7 L310.2,255.6 L310.7,253.5 L311.3,251.3 L311.9,249.2 L312.5,247.0 L313.0,244.8
		L313.6,242.6 L314.2,240.4 L314.7,238.2 L315.3,236.0 L315.9,233.8 L316.4,231.5 L317.0,229.3 L317.6,227.0
		L318.2,224.8 L318.7,222.5 L319.3,220.3 L319.9,218.0 L320.4,215.8 L321.0,213.5 L321.6,211.3 L322.2,209.0
		L322.7,206.8 L323.3,204.5 L323.9,202.3 L324.4,200.1 L325.0,197.9 L325.6,195.7 L326.1,193.5 L326.7,191.3
		L327.3,189.2 L327.9,187.0 L328.4,184.9 L329.0,182.8 L329.6,180.7 L330.1,178.6 L330.7,176.6 L331.3,174.5
		L331.9,172.5 L332.4,170.5 L333.0,168.5 L333.6,166.6 L334.1,164.6 L334.7,162.7 L335.3,160.8 L335.9,159.0
		L336.4,157.1 L337.0,155.3 L337.6,153.5 L338.1,151.8 L338.7,150.0 L339.3,148.3 L339.8,146.6 L340.4,145.0
		L341.0,143.4 L341.6,141.8 L342.1,140.2 L342.7,138.6 L343.3,137.1 L343.8,135.6 L344.4,134.1 L345.0,132.7
		L345.6,131.3 L346.1,129.9 L346.7,128.5 L347.3,127.2 L347.8,125.9 L348.4,124.6 L349.0,123.4 L349.6,122.1
		L350.1,120.9 L350.7,119.8 L351.3,118.6 L351.8,117.5 L352.4,116.4 L353.0,115.3 L353.5,114.2 L354.1,113.2
		L354.7,112.2 L355.3,111.2 L355.8,110.3 L356.4,109.3 L357.0,108.4 L357.5,107.5 L358.1,106.6 L358.7,105.8
		L359.3,105.0 L359.8,104.2 L360.4,103.4 L361.0,102.6 L361.5,101.8 L362.1,101.1 L362.7,100.4 L363.2,99.7
		L363.8,99.0 L364.4,98.4 L365.0,97.7 L365.5,97.1 L366.1,96.5 L366.7,95.9 L367.2,95.3 L367.8,94.8
		L368.4,94.2 L369.0,93.7 L369.5,93.2 L370.1,92.7 L370.7,92.2 L371.2,91.7 L371.8,91.2 L372.4,90.8
		L373.0,90.4 L373.5,89.9 L374.1,89.5 L374.7,89.1 L375.2,88.7 L375.8,88.3 L376.4,88.0 L376.9,87.6
		L377.5,87.3 L378.1,86.9 L378.7,86.6 L379.2,86.3 L379.8,86.0 L380.4,85.7 L380.9,85.4 L381.5,85.1
		L382.1,84.8 L382.7,84.5 L383.2,84.3 L383.8,84.0 L384.4,83.8 L384.9,83.5 L385.5,83.3 L386.1,83.1
		L386.6,82.9 L387.2,82.7 L387.8,82.5 L388.4,82.3 L388.9,82.1 L389.5,81.9 L390.1,81.7 L390.6,81.5
		L391.2,81.3 L391.8,81.2 L392.4,81.0 L392.9,80.9 L393.5,80.7 L394.1,80.6 L394.6,80.4 L395.2,80.3
		L395.8,80.2 L396.4,80.0 L396.9,79.9 L397.5,79.8 L398.1,79.7 L398.6,79.5 L399.2,79.4 L399.8,79.3
		L400.3,79.2 L400.9,79.1 L401.5,79.0 L402.1,78.9 L402.6,78.8 L403.2,78.7 L403.8,78.6 L404.3,78.6
		L404.9,78.5 L405.5,78.4 L406.1,78.3 L406.6,78.2 L407.2,78.2 L407.8,78.1 L408.3,78.0 L408.9,78.0
		L409.5,77.9 L410.1,77.8 L410.6,77.8 L411.2,77.7 L411.8,77.7 L412.3,77.6 L412.9,77.6 L413.5,77.5
		L414.0,77.5 L414.6,77.4 L415.2,77.4 L415.8,77.3 L416.3,77.3 L416.9,77.2 L417.5,77.2 L418.0,77.2
		L418.6,77.1 L419.2,77.1 L419.8,77.0 L420.3,77.0 L420.9,77.0 L421.5,76.9 L422.0,76.9 L422.6,76.9
		L423.2,76.9 L423.7,76.8 L424.3,76.8 L424.9,76.8 L425.5,76.7 L426.0,76.7 L426.6,76.7 L427.2,76.7
		L427.7,76.6 L428.3,76.6 L428.9,76.6 L429.5,76.6 L430.0,76.6 L430.6,76.5 L431.2,76.5 L431.7,76.5
		L432.3,76.5 L432.9,76.5 L433.5,76.4 L434.0,76.4 L434.6,76.4 L435.2,76.4 L435.7,76.4 L436.3,76.4
		L436.9,76.4 L437.4,76.3 L438.0,76.3 L438.6,76.3 L439.2,76.3 L439.7,76.3 L440.3,76.3 L440.9,76.3
		L441.4,76.3 L442.0,76.2 L442.6,76.2 L443.2,76.2 L443.7,76.2 L444.3,76.2 L444.9,76.2 L445.4,76.2
		L446.0,76.2 L446.6,76.2 L447.2,76.2 L447.7,76.2 L448.3,76.2 L448.9,76.1 L449.4,76.1 L450.0,76.1
		L450.6,76.1 L451.1,76.1 L451.7,76.1 L452.3,76.1 L452.9,76.1 L453.4,76.1 L454.0,76.1 L454.6,76.1
		L455.1,76.1 L455.7,76.1 L456.3,76.1 L456.9,76.1 L457.4,76.1 L458.0,76.1 L458.6,76.0 L459.1,76.0
		L459.7,76.0 L460.3,76.0 L460.8,76.0 L461.4,76.0 L462.0,76.0 L462.6,76.0 L463.1,76.0 L463.7,76.0
		L464.3,76.0 L464.8,76.0 L465.4,76.0 L466.0,76.0 L466.6,76.0 L467.1,76.0 L467.7,76.0 L468.3,76.0
		L468.8,76.0 L469.4,76.0 L470.0,76.0 L470.6,76.0 L471.1,76.0 L471.7,76.0 L472.3,76.0 L472.8,76.0
		L473.4,76.0 L474.0,76.0 L474.5,76.0 L475.1,76.0 L475.7,75.9 L476.3,75.9 L476.8,75.9 L477.4,75.9
		L478.0,75.9 L478.5,75.9 L479.1,75.9 L479.7,75.9 L480.3,75.9 L480.8,75.9 L481.4,75.9 L482.0,75.9
		L482.5,75.9 L483.1,75.9 L483.7,75.9 L484.2,75.9 L484.8,75.9 L485.4,75.9 L486.0,75.9 L486.5,75.9
		L487.1,75.9 L487.7,75.9 L488.2,75.9 L488.8,75.9 L489.4,75.9 L490.0,75.9 L490.5,75.9 L491.1,75.9
		L491.7,75.9 L492.2,75.9 L492.8,75.9 L493.4,75.9 L494.0,75.9 L494.5,75.9 L495.1,75.9 L495.7,75.9
		L496.2,75.9 L496.8,75.9 L497.4,75.8 L497.9,75.8 L498.5,75.8 L499.1,75.8 L499.7,75.8 L500.2,75.8
		L500.8,75.8 L501.4,75.8 L501.9,75.8  '/></g>
	</g>
<g fill="none" color="#FFFFFF" stroke="rgb(  0, 158, 115)" stroke-width="2.00" stroke-linecap="butt" stroke-linejoin="miter">
</g>
<g fill="none" color="black" stroke="currentColor" stroke-width="2.00" stroke-linecap="butt" stroke-linejoin="miter">
</g>
<g fill="none" color="black" stroke="black" stroke-width="1.00" stroke-linecap="butt" stroke-linejoin="miter">
</g>
<g fill="none" color="black" stroke="currentColor" stroke-width="1.00" stroke-linecap="butt" stroke-linejoin="miter">
	<path stroke='black'  d='M63.6,18.1 L63.6,422.4 L575.0,422.4 L575.0,18.1 L63.6,18.1 Z  '/></g>
<g fill="none" color="black" stroke="currentColor" stroke-width="1.00" stroke-linecap="butt" stroke-linejoin="miter">
</g>
</g>
</svg>

