\relax 
\@writefile{toc}{\contentsline {section}{\numberline {1}The problem}{1}}
\@writefile{toc}{\contentsline {section}{\numberline {2}The solution}{1}}
\@writefile{lof}{\contentsline {figure}{\numberline {1}{\ignorespaces Largest eigenvalues of $n \times n$ random real symmetric matrices plotted against $n$. The random values of the matrix are pseudo-randomly generated, distributed in the interval $[0,1]$. A linear fit to the data is also shown.}}{2}}
\newlabel{eigvsn}{{1}{2}}
